{
  "contracts": {
    "JarvisRewardToken": {
      "address": "0xC8Eb057f5e38F71FE42a9E59d51ac60926Ec933D",
      "constructorCode": "608060405234801561001057600080fd5b506116ec806100206000396000f3fe",
      "bodyBytecodeHash": "42a421741493e1ae0ef901f467e3470133e7d91973184d22c8ffd865e909b9b3",
      "localBytecodeHash": "e2c8cb9861c2a0555354f534362125c9040356ae6b7a84433174958861443a69",
      "deployedBytecodeHash": "e2c8cb9861c2a0555354f534362125c9040356ae6b7a84433174958861443a69",
      "types": {
        "t_bool": {
          "id": "t_bool",
          "kind": "elementary",
          "label": "bool"
        },
        "t_uint256": {
          "id": "t_uint256",
          "kind": "elementary",
          "label": "uint256"
        },
        "t_array:50<t_uint256>": {
          "id": "t_array:50<t_uint256>",
          "valueType": "t_uint256",
          "length": "50",
          "kind": "array",
          "label": "uint256[50]"
        },
        "t_mapping<t_uint256>": {
          "id": "t_mapping<t_uint256>",
          "valueType": "t_uint256",
          "label": "mapping(key => uint256)",
          "kind": "mapping"
        },
        "t_struct<Roles.Role>": {
          "id": "t_struct<Roles.Role>",
          "kind": "struct",
          "label": "Roles.Role",
          "members": [
            {
              "label": "bearer",
              "astId": 1213,
              "type": "t_mapping<t_bool>",
              "src": "150:32:9"
            }
          ]
        },
        "t_mapping<t_bool>": {
          "id": "t_mapping<t_bool>",
          "valueType": "t_bool",
          "label": "mapping(key => bool)",
          "kind": "mapping"
        },
        "t_bytes32": {
          "id": "t_bytes32",
          "kind": "elementary",
          "label": "bytes32"
        }
      },
      "storage": [
        {
          "contract": "Initializable",
          "path": "zos-lib/contracts/Initializable.sol",
          "label": "initialized",
          "astId": 1502,
          "type": "t_bool",
          "src": "757:24:12"
        },
        {
          "contract": "Initializable",
          "path": "zos-lib/contracts/Initializable.sol",
          "label": "initializing",
          "astId": 1504,
          "type": "t_bool",
          "src": "876:25:12"
        },
        {
          "contract": "Initializable",
          "path": "zos-lib/contracts/Initializable.sol",
          "label": "______gap",
          "astId": 1553,
          "type": "t_array:50<t_uint256>",
          "src": "1891:29:12"
        },
        {
          "contract": "ERC20",
          "path": "contracts/ERC20.sol",
          "label": "_balances",
          "astId": 15,
          "type": "t_mapping<t_uint256>",
          "src": "828:46:0"
        },
        {
          "contract": "ERC20",
          "path": "contracts/ERC20.sol",
          "label": "_allowed",
          "astId": 21,
          "type": "t_mapping<t_uint256>",
          "src": "879:65:0"
        },
        {
          "contract": "ERC20",
          "path": "contracts/ERC20.sol",
          "label": "_totalSupply",
          "astId": 23,
          "type": "t_uint256",
          "src": "949:29:0"
        },
        {
          "contract": "ERC20",
          "path": "contracts/ERC20.sol",
          "label": "______gap",
          "astId": 437,
          "type": "t_array:50<t_uint256>",
          "src": "7456:29:0"
        },
        {
          "contract": "ERC20Burnable",
          "path": "contracts/ERC20Burnable.sol",
          "label": "______gap",
          "astId": 475,
          "type": "t_array:50<t_uint256>",
          "src": "748:29:1"
        },
        {
          "contract": "PauserRole",
          "path": "contracts/PauserRole.sol",
          "label": "_pausers",
          "astId": 959,
          "type": "t_struct<Roles.Role>",
          "src": "293:27:7"
        },
        {
          "contract": "PauserRole",
          "path": "contracts/PauserRole.sol",
          "label": "______gap",
          "astId": 1040,
          "type": "t_array:50<t_uint256>",
          "src": "898:29:7"
        },
        {
          "contract": "Pausable",
          "path": "contracts/Pausable.sol",
          "label": "_paused",
          "astId": 876,
          "type": "t_bool",
          "src": "332:20:6"
        },
        {
          "contract": "Pausable",
          "path": "contracts/Pausable.sol",
          "label": "______gap",
          "astId": 939,
          "type": "t_array:50<t_uint256>",
          "src": "1188:29:6"
        },
        {
          "contract": "ERC20Pausable",
          "path": "contracts/ERC20Pausable.sol",
          "label": "______gap",
          "astId": 640,
          "type": "t_array:50<t_uint256>",
          "src": "1112:29:3"
        },
        {
          "contract": "MinterRole",
          "path": "contracts/MinterRole.sol",
          "label": "_minters",
          "astId": 760,
          "type": "t_struct<Roles.Role>",
          "src": "230:27:5"
        },
        {
          "contract": "MinterRole",
          "path": "contracts/MinterRole.sol",
          "label": "______gap",
          "astId": 857,
          "type": "t_array:50<t_uint256>",
          "src": "960:29:5"
        },
        {
          "contract": "ERC20Mintable",
          "path": "contracts/ERC20Mintable.sol",
          "label": "______gap",
          "astId": 531,
          "type": "t_array:50<t_uint256>",
          "src": "773:29:2"
        },
        {
          "contract": "Permit",
          "path": "contracts/Permit.sol",
          "label": "DOMAIN_SEPARATOR",
          "astId": 1048,
          "type": "t_bytes32",
          "src": "77:31:8"
        },
        {
          "contract": "Permit",
          "path": "contracts/Permit.sol",
          "label": "PERMIT_TYPEHASH",
          "astId": 1050,
          "type": "t_bytes32",
          "src": "113:30:8"
        },
        {
          "contract": "Permit",
          "path": "contracts/Permit.sol",
          "label": "nonces",
          "astId": 1054,
          "type": "t_mapping<t_uint256>",
          "src": "148:41:8"
        },
        {
          "contract": "Permit",
          "path": "contracts/Permit.sol",
          "label": "upgradedToV2",
          "astId": 1056,
          "type": "t_bool",
          "src": "194:26:8"
        },
        {
          "contract": "Permit",
          "path": "contracts/Permit.sol",
          "label": "______gap",
          "astId": 1206,
          "type": "t_array:50<t_uint256>",
          "src": "1537:29:8"
        }
      ],
      "warnings": {
        "hasConstructor": false,
        "hasSelfDestruct": false,
        "hasDelegateCall": false,
        "hasInitialValuesInDeclarations": false,
        "uninitializedBaseContracts": [],
        "storageUncheckedVars": [
          {
            "contract": "PauserRole",
            "path": "contracts/PauserRole.sol",
            "label": "_pausers",
            "astId": 959,
            "type": "t_struct<Roles.Role>",
            "src": "293:27:7"
          },
          {
            "contract": "MinterRole",
            "path": "contracts/MinterRole.sol",
            "label": "_minters",
            "astId": 760,
            "type": "t_struct<Roles.Role>",
            "src": "230:27:5"
          }
        ],
        "storageDiff": [
          {
            "action": "append",
            "updated": {
              "index": 13,
              "contract": "MinterRole",
              "path": "contracts/MinterRole.sol",
              "label": "_minters",
              "astId": 760,
              "type": "t_struct<Roles.Role>",
              "src": "230:27:5"
            }
          },
          {
            "action": "append",
            "updated": {
              "index": 14,
              "contract": "MinterRole",
              "path": "contracts/MinterRole.sol",
              "label": "______gap",
              "astId": 857,
              "type": "t_array:50<t_uint256>",
              "src": "960:29:5"
            }
          },
          {
            "action": "append",
            "updated": {
              "index": 15,
              "contract": "ERC20Mintable",
              "path": "contracts/ERC20Mintable.sol",
              "label": "______gap",
              "astId": 531,
              "type": "t_array:50<t_uint256>",
              "src": "773:29:2"
            }
          },
          {
            "action": "append",
            "updated": {
              "index": 16,
              "contract": "Permit",
              "path": "contracts/Permit.sol",
              "label": "DOMAIN_SEPARATOR",
              "astId": 1048,
              "type": "t_bytes32",
              "src": "77:31:8"
            }
          },
          {
            "action": "append",
            "updated": {
              "index": 17,
              "contract": "Permit",
              "path": "contracts/Permit.sol",
              "label": "PERMIT_TYPEHASH",
              "astId": 1050,
              "type": "t_bytes32",
              "src": "113:30:8"
            }
          },
          {
            "action": "append",
            "updated": {
              "index": 18,
              "contract": "Permit",
              "path": "contracts/Permit.sol",
              "label": "nonces",
              "astId": 1054,
              "type": "t_mapping<t_uint256>",
              "src": "148:41:8"
            }
          },
          {
            "action": "append",
            "updated": {
              "index": 19,
              "contract": "Permit",
              "path": "contracts/Permit.sol",
              "label": "upgradedToV2",
              "astId": 1056,
              "type": "t_bool",
              "src": "194:26:8"
            }
          },
          {
            "action": "append",
            "updated": {
              "index": 20,
              "contract": "Permit",
              "path": "contracts/Permit.sol",
              "label": "______gap",
              "astId": 1206,
              "type": "t_array:50<t_uint256>",
              "src": "1537:29:8"
            }
          }
        ]
      }
    }
  },
  "solidityLibs": {},
  "proxies": {
    "jrt/JarvisRewardToken": [
      {
        "address": "0x8A9C67fee641579dEbA04928c4BC45F66e26343A",
        "version": "0.1.0",
        "implementation": "0xC8Eb057f5e38F71FE42a9E59d51ac60926Ec933D"
      }
    ]
  },
  "zosversion": "2.2",
  "version": "0.1.0",
  "dependencies": {
    "openzeppelin-eth": {
      "package": "0x778dddf23ec1b5cb18394c6c110480caadb3b0f6",
      "version": "2.1.3"
    }
  },
  "proxyAdmin": {
    "address": "0x931E8B8c9A978294bF5E9Ea6153b9217C57F17A3"
  }
}
